(module Core3S500E (layer F.Cu) (tedit 5634EDAD)
  (descr "Footprint for WaveShares Core module for the Xilinx SPARTAN XC3S500E")
  (tags XC3S500E)
  (fp_text reference P1 (at 24 24) (layer F.SilkS)
    (effects (font (size 1 1) (thickness 0.15)))
  )
  (fp_text value SOCKET_Core3S500E (at 40.813 -0.001) (layer F.Fab)
    (effects (font (size 1 1) (thickness 0.15)))
  )
  (fp_line (start -2 -2) (end 52 -2) (layer F.SilkS) (width 0.15))
  (fp_line (start 52 -2) (end 52 54) (layer F.SilkS) (width 0.15))
  (fp_line (start 52 54) (end -2 54) (layer F.SilkS) (width 0.15))
  (fp_line (start -2 54) (end -2 -2) (layer F.SilkS) (width 0.15))
  (fp_text user "Unit C" (at 46 30 90) (layer F.SilkS)
    (effects (font (size 1 1) (thickness 0.15)))
  )
  (fp_text user "Unit B" (at 4 30 90) (layer F.SilkS)
    (effects (font (size 1 1) (thickness 0.15)))
  )
  (fp_text user "Unit A" (at 14 4) (layer F.SilkS)
    (effects (font (size 1 1) (thickness 0.15)))
  )
  (fp_line (start -1.595 -1.595) (end -1.595 3.595) (layer F.CrtYd) (width 0.05))
  (fp_line (start -1.595 3.595) (end 31.595 3.595) (layer F.CrtYd) (width 0.05))
  (fp_line (start 31.595 3.595) (end 31.595 -1.595) (layer F.CrtYd) (width 0.05))
  (fp_line (start 31.595 -1.595) (end -1.595 -1.595) (layer F.CrtYd) (width 0.05))
  (fp_line (start 31.095 3.095) (end -1.095 3.095) (layer F.SilkS) (width 0.15))
  (fp_line (start 31.095 -1.095) (end 1.095 -1.095) (layer F.SilkS) (width 0.15))
  (fp_line (start 31.095 3.095) (end 31.095 -1.095) (layer F.SilkS) (width 0.15))
  (fp_line (start -1.095 3.095) (end -1.095 1.095) (layer F.SilkS) (width 0.15))
  (fp_line (start -1.095 1.095) (end 1.095 1.095) (layer F.SilkS) (width 0.15))
  (fp_line (start 1.095 1.095) (end 1.095 -1.095) (layer F.SilkS) (width 0.15))
  (fp_line (start 0 -1.095) (end -1.095 -1.095) (layer F.SilkS) (width 0.15))
  (fp_line (start -1.095 -1.095) (end -1.095 0) (layer F.SilkS) (width 0.15))
  (fp_line (start -1.595 6.405) (end -1.595 53.595) (layer F.CrtYd) (width 0.05))
  (fp_line (start -1.595 53.595) (end 3.595 53.595) (layer F.CrtYd) (width 0.05))
  (fp_line (start 3.595 53.595) (end 3.595 6.405) (layer F.CrtYd) (width 0.05))
  (fp_line (start 3.595 6.405) (end -1.595 6.405) (layer F.CrtYd) (width 0.05))
  (fp_line (start -1.095 6.905) (end -1.095 53.095) (layer F.SilkS) (width 0.15))
  (fp_line (start -1.095 53.095) (end 3.095 53.095) (layer F.SilkS) (width 0.15))
  (fp_line (start 3.095 53.095) (end 3.095 9.095) (layer F.SilkS) (width 0.15))
  (fp_line (start 3.095 9.095) (end 0.905 9.095) (layer F.SilkS) (width 0.15))
  (fp_line (start 0.905 9.095) (end 0.905 6.905) (layer F.SilkS) (width 0.15))
  (fp_line (start 0.905 6.905) (end -1.095 6.905) (layer F.SilkS) (width 0.15))
  (fp_line (start 2 6.905) (end 3.095 6.905) (layer F.SilkS) (width 0.15))
  (fp_line (start 3.095 6.905) (end 3.095 8) (layer F.SilkS) (width 0.15))
  (fp_line (start 46.595 6.405) (end 46.595 53.595) (layer F.CrtYd) (width 0.05))
  (fp_line (start 46.595 53.595) (end 51.595 53.595) (layer F.CrtYd) (width 0.05))
  (fp_line (start 51.595 53.595) (end 51.595 6.405) (layer F.CrtYd) (width 0.05))
  (fp_line (start 51.595 6.405) (end 46.595 6.405) (layer F.CrtYd) (width 0.05))
  (fp_line (start 46.905 6.905) (end 46.905 53.095) (layer F.SilkS) (width 0.15))
  (fp_line (start 46.905 53.095) (end 51.095 53.095) (layer F.SilkS) (width 0.15))
  (fp_line (start 51.095 53.095) (end 51.095 9.095) (layer F.SilkS) (width 0.15))
  (fp_line (start 51.095 9.095) (end 48.905 9.095) (layer F.SilkS) (width 0.15))
  (fp_line (start 48.905 9.095) (end 48.905 6.905) (layer F.SilkS) (width 0.15))
  (fp_line (start 48.905 6.905) (end 46.905 6.905) (layer F.SilkS) (width 0.15))
  (fp_line (start 50 6.905) (end 51.095 6.905) (layer F.SilkS) (width 0.15))
  (fp_line (start 51.095 6.905) (end 51.095 8) (layer F.SilkS) (width 0.15))
  (pad 1 thru_hole rect (at 0 0) (size 1.25 1.25) (drill 0.71) (layers *.Cu *.Mask F.SilkS))
  (pad 2 thru_hole circle (at 0 2) (size 1.25 1.25) (drill 0.71) (layers *.Cu *.Mask F.SilkS))
  (pad 3 thru_hole circle (at 2 0) (size 1.25 1.25) (drill 0.71) (layers *.Cu *.Mask F.SilkS))
  (pad 4 thru_hole circle (at 2 2) (size 1.25 1.25) (drill 0.71) (layers *.Cu *.Mask F.SilkS))
  (pad 5 thru_hole circle (at 4 0) (size 1.25 1.25) (drill 0.71) (layers *.Cu *.Mask F.SilkS))
  (pad 6 thru_hole circle (at 4 2) (size 1.25 1.25) (drill 0.71) (layers *.Cu *.Mask F.SilkS))
  (pad 7 thru_hole circle (at 6 0) (size 1.25 1.25) (drill 0.71) (layers *.Cu *.Mask F.SilkS))
  (pad 8 thru_hole circle (at 6 2) (size 1.25 1.25) (drill 0.71) (layers *.Cu *.Mask F.SilkS))
  (pad 9 thru_hole circle (at 8 0) (size 1.25 1.25) (drill 0.71) (layers *.Cu *.Mask F.SilkS))
  (pad 10 thru_hole circle (at 8 2) (size 1.25 1.25) (drill 0.71) (layers *.Cu *.Mask F.SilkS))
  (pad 11 thru_hole circle (at 10 0) (size 1.25 1.25) (drill 0.71) (layers *.Cu *.Mask F.SilkS))
  (pad 12 thru_hole circle (at 10 2) (size 1.25 1.25) (drill 0.71) (layers *.Cu *.Mask F.SilkS))
  (pad 13 thru_hole circle (at 12 0) (size 1.25 1.25) (drill 0.71) (layers *.Cu *.Mask F.SilkS))
  (pad 14 thru_hole circle (at 12 2) (size 1.25 1.25) (drill 0.71) (layers *.Cu *.Mask F.SilkS))
  (pad 15 thru_hole circle (at 14 0) (size 1.25 1.25) (drill 0.71) (layers *.Cu *.Mask F.SilkS))
  (pad 16 thru_hole circle (at 14 2) (size 1.25 1.25) (drill 0.71) (layers *.Cu *.Mask F.SilkS))
  (pad 17 thru_hole circle (at 16 0) (size 1.25 1.25) (drill 0.71) (layers *.Cu *.Mask F.SilkS))
  (pad 18 thru_hole circle (at 16 2) (size 1.25 1.25) (drill 0.71) (layers *.Cu *.Mask F.SilkS))
  (pad 19 thru_hole circle (at 18 0) (size 1.25 1.25) (drill 0.71) (layers *.Cu *.Mask F.SilkS))
  (pad 20 thru_hole circle (at 18 2) (size 1.25 1.25) (drill 0.71) (layers *.Cu *.Mask F.SilkS))
  (pad 21 thru_hole circle (at 20 0) (size 1.25 1.25) (drill 0.71) (layers *.Cu *.Mask F.SilkS))
  (pad 22 thru_hole circle (at 20 2) (size 1.25 1.25) (drill 0.71) (layers *.Cu *.Mask F.SilkS))
  (pad 23 thru_hole circle (at 22 0) (size 1.25 1.25) (drill 0.71) (layers *.Cu *.Mask F.SilkS))
  (pad 24 thru_hole circle (at 22 2) (size 1.25 1.25) (drill 0.71) (layers *.Cu *.Mask F.SilkS))
  (pad 25 thru_hole circle (at 24 0) (size 1.25 1.25) (drill 0.71) (layers *.Cu *.Mask F.SilkS))
  (pad 26 thru_hole circle (at 24 2) (size 1.25 1.25) (drill 0.71) (layers *.Cu *.Mask F.SilkS))
  (pad 27 thru_hole circle (at 26 0) (size 1.25 1.25) (drill 0.71) (layers *.Cu *.Mask F.SilkS))
  (pad 28 thru_hole circle (at 26 2) (size 1.25 1.25) (drill 0.71) (layers *.Cu *.Mask F.SilkS))
  (pad 29 thru_hole circle (at 28 0) (size 1.25 1.25) (drill 0.71) (layers *.Cu *.Mask F.SilkS))
  (pad 30 thru_hole circle (at 28 2) (size 1.25 1.25) (drill 0.71) (layers *.Cu *.Mask F.SilkS))
  (pad 31 thru_hole circle (at 30 0) (size 1.25 1.25) (drill 0.71) (layers *.Cu *.Mask F.SilkS))
  (pad 32 thru_hole circle (at 30 2) (size 1.25 1.25) (drill 0.71) (layers *.Cu *.Mask F.SilkS))
  (pad 33 thru_hole rect (at 2 8) (size 1.25 1.25) (drill 0.71) (layers *.Cu *.Mask F.SilkS))
  (pad 34 thru_hole circle (at 0 8) (size 1.25 1.25) (drill 0.71) (layers *.Cu *.Mask F.SilkS))
  (pad 35 thru_hole circle (at 2 10) (size 1.25 1.25) (drill 0.71) (layers *.Cu *.Mask F.SilkS))
  (pad 36 thru_hole circle (at 0 10) (size 1.25 1.25) (drill 0.71) (layers *.Cu *.Mask F.SilkS))
  (pad 37 thru_hole circle (at 2 12) (size 1.25 1.25) (drill 0.71) (layers *.Cu *.Mask F.SilkS))
  (pad 38 thru_hole circle (at 0 12) (size 1.25 1.25) (drill 0.71) (layers *.Cu *.Mask F.SilkS))
  (pad 39 thru_hole circle (at 2 14) (size 1.25 1.25) (drill 0.71) (layers *.Cu *.Mask F.SilkS))
  (pad 40 thru_hole circle (at 0 14) (size 1.25 1.25) (drill 0.71) (layers *.Cu *.Mask F.SilkS))
  (pad 41 thru_hole circle (at 2 16) (size 1.25 1.25) (drill 0.71) (layers *.Cu *.Mask F.SilkS))
  (pad 42 thru_hole circle (at 0 16) (size 1.25 1.25) (drill 0.71) (layers *.Cu *.Mask F.SilkS))
  (pad 43 thru_hole circle (at 2 18) (size 1.25 1.25) (drill 0.71) (layers *.Cu *.Mask F.SilkS))
  (pad 44 thru_hole circle (at 0 18) (size 1.25 1.25) (drill 0.71) (layers *.Cu *.Mask F.SilkS))
  (pad 45 thru_hole circle (at 2 20) (size 1.25 1.25) (drill 0.71) (layers *.Cu *.Mask F.SilkS))
  (pad 46 thru_hole circle (at 0 20) (size 1.25 1.25) (drill 0.71) (layers *.Cu *.Mask F.SilkS))
  (pad 47 thru_hole circle (at 2 22) (size 1.25 1.25) (drill 0.71) (layers *.Cu *.Mask F.SilkS))
  (pad 48 thru_hole circle (at 0 22) (size 1.25 1.25) (drill 0.71) (layers *.Cu *.Mask F.SilkS))
  (pad 49 thru_hole circle (at 2 24) (size 1.25 1.25) (drill 0.71) (layers *.Cu *.Mask F.SilkS))
  (pad 50 thru_hole circle (at 0 24) (size 1.25 1.25) (drill 0.71) (layers *.Cu *.Mask F.SilkS))
  (pad 51 thru_hole circle (at 2 26) (size 1.25 1.25) (drill 0.71) (layers *.Cu *.Mask F.SilkS))
  (pad 52 thru_hole circle (at 0 26) (size 1.25 1.25) (drill 0.71) (layers *.Cu *.Mask F.SilkS))
  (pad 53 thru_hole circle (at 2 28) (size 1.25 1.25) (drill 0.71) (layers *.Cu *.Mask F.SilkS))
  (pad 54 thru_hole circle (at 0 28) (size 1.25 1.25) (drill 0.71) (layers *.Cu *.Mask F.SilkS))
  (pad 55 thru_hole circle (at 2 30) (size 1.25 1.25) (drill 0.71) (layers *.Cu *.Mask F.SilkS))
  (pad 56 thru_hole circle (at 0 30) (size 1.25 1.25) (drill 0.71) (layers *.Cu *.Mask F.SilkS))
  (pad 57 thru_hole circle (at 2 32) (size 1.25 1.25) (drill 0.71) (layers *.Cu *.Mask F.SilkS))
  (pad 58 thru_hole circle (at 0 32) (size 1.25 1.25) (drill 0.71) (layers *.Cu *.Mask F.SilkS))
  (pad 59 thru_hole circle (at 2 34) (size 1.25 1.25) (drill 0.71) (layers *.Cu *.Mask F.SilkS))
  (pad 60 thru_hole circle (at 0 34) (size 1.25 1.25) (drill 0.71) (layers *.Cu *.Mask F.SilkS))
  (pad 61 thru_hole circle (at 2 36) (size 1.25 1.25) (drill 0.71) (layers *.Cu *.Mask F.SilkS))
  (pad 62 thru_hole circle (at 0 36) (size 1.25 1.25) (drill 0.71) (layers *.Cu *.Mask F.SilkS))
  (pad 63 thru_hole circle (at 2 38) (size 1.25 1.25) (drill 0.71) (layers *.Cu *.Mask F.SilkS))
  (pad 64 thru_hole circle (at 0 38) (size 1.25 1.25) (drill 0.71) (layers *.Cu *.Mask F.SilkS))
  (pad 65 thru_hole circle (at 2 40) (size 1.25 1.25) (drill 0.71) (layers *.Cu *.Mask F.SilkS))
  (pad 66 thru_hole circle (at 0 40) (size 1.25 1.25) (drill 0.71) (layers *.Cu *.Mask F.SilkS))
  (pad 67 thru_hole circle (at 2 42) (size 1.25 1.25) (drill 0.71) (layers *.Cu *.Mask F.SilkS))
  (pad 68 thru_hole circle (at 0 42) (size 1.25 1.25) (drill 0.71) (layers *.Cu *.Mask F.SilkS))
  (pad 69 thru_hole circle (at 2 44) (size 1.25 1.25) (drill 0.71) (layers *.Cu *.Mask F.SilkS))
  (pad 70 thru_hole circle (at 0 44) (size 1.25 1.25) (drill 0.71) (layers *.Cu *.Mask F.SilkS))
  (pad 71 thru_hole circle (at 2 46) (size 1.25 1.25) (drill 0.71) (layers *.Cu *.Mask F.SilkS))
  (pad 72 thru_hole circle (at 0 46) (size 1.25 1.25) (drill 0.71) (layers *.Cu *.Mask F.SilkS))
  (pad 73 thru_hole circle (at 2 48) (size 1.25 1.25) (drill 0.71) (layers *.Cu *.Mask F.SilkS))
  (pad 74 thru_hole circle (at 0 48) (size 1.25 1.25) (drill 0.71) (layers *.Cu *.Mask F.SilkS))
  (pad 75 thru_hole circle (at 2 50) (size 1.25 1.25) (drill 0.71) (layers *.Cu *.Mask F.SilkS))
  (pad 76 thru_hole circle (at 0 50) (size 1.25 1.25) (drill 0.71) (layers *.Cu *.Mask F.SilkS))
  (pad 77 thru_hole circle (at 2 52) (size 1.25 1.25) (drill 0.71) (layers *.Cu *.Mask F.SilkS))
  (pad 78 thru_hole circle (at 0 52) (size 1.25 1.25) (drill 0.71) (layers *.Cu *.Mask F.SilkS))
  (pad 79 thru_hole rect (at 50 8) (size 1.25 1.25) (drill 0.71) (layers *.Cu *.Mask F.SilkS))
  (pad 80 thru_hole circle (at 48 8) (size 1.25 1.25) (drill 0.71) (layers *.Cu *.Mask F.SilkS))
  (pad 81 thru_hole circle (at 50 10) (size 1.25 1.25) (drill 0.71) (layers *.Cu *.Mask F.SilkS))
  (pad 82 thru_hole circle (at 48 10) (size 1.25 1.25) (drill 0.71) (layers *.Cu *.Mask F.SilkS))
  (pad 83 thru_hole circle (at 50 12) (size 1.25 1.25) (drill 0.71) (layers *.Cu *.Mask F.SilkS))
  (pad 84 thru_hole circle (at 48 12) (size 1.25 1.25) (drill 0.71) (layers *.Cu *.Mask F.SilkS))
  (pad 85 thru_hole circle (at 50 14) (size 1.25 1.25) (drill 0.71) (layers *.Cu *.Mask F.SilkS))
  (pad 86 thru_hole circle (at 48 14) (size 1.25 1.25) (drill 0.71) (layers *.Cu *.Mask F.SilkS))
  (pad 87 thru_hole circle (at 50 16) (size 1.25 1.25) (drill 0.71) (layers *.Cu *.Mask F.SilkS))
  (pad 88 thru_hole circle (at 48 16) (size 1.25 1.25) (drill 0.71) (layers *.Cu *.Mask F.SilkS))
  (pad 89 thru_hole circle (at 50 18) (size 1.25 1.25) (drill 0.71) (layers *.Cu *.Mask F.SilkS))
  (pad 90 thru_hole circle (at 48 18) (size 1.25 1.25) (drill 0.71) (layers *.Cu *.Mask F.SilkS))
  (pad 91 thru_hole circle (at 50 20) (size 1.25 1.25) (drill 0.71) (layers *.Cu *.Mask F.SilkS))
  (pad 92 thru_hole circle (at 48 20) (size 1.25 1.25) (drill 0.71) (layers *.Cu *.Mask F.SilkS))
  (pad 93 thru_hole circle (at 50 22) (size 1.25 1.25) (drill 0.71) (layers *.Cu *.Mask F.SilkS))
  (pad 94 thru_hole circle (at 48 22) (size 1.25 1.25) (drill 0.71) (layers *.Cu *.Mask F.SilkS))
  (pad 95 thru_hole circle (at 50 24) (size 1.25 1.25) (drill 0.71) (layers *.Cu *.Mask F.SilkS))
  (pad 96 thru_hole circle (at 48 24) (size 1.25 1.25) (drill 0.71) (layers *.Cu *.Mask F.SilkS))
  (pad 97 thru_hole circle (at 50 26) (size 1.25 1.25) (drill 0.71) (layers *.Cu *.Mask F.SilkS))
  (pad 98 thru_hole circle (at 48 26) (size 1.25 1.25) (drill 0.71) (layers *.Cu *.Mask F.SilkS))
  (pad 99 thru_hole circle (at 50 28) (size 1.25 1.25) (drill 0.71) (layers *.Cu *.Mask F.SilkS))
  (pad 100 thru_hole circle (at 48 28) (size 1.25 1.25) (drill 0.71) (layers *.Cu *.Mask F.SilkS))
  (pad 101 thru_hole circle (at 50 30) (size 1.25 1.25) (drill 0.71) (layers *.Cu *.Mask F.SilkS))
  (pad 102 thru_hole circle (at 48 30) (size 1.25 1.25) (drill 0.71) (layers *.Cu *.Mask F.SilkS))
  (pad 103 thru_hole circle (at 50 32) (size 1.25 1.25) (drill 0.71) (layers *.Cu *.Mask F.SilkS))
  (pad 104 thru_hole circle (at 48 32) (size 1.25 1.25) (drill 0.71) (layers *.Cu *.Mask F.SilkS))
  (pad 105 thru_hole circle (at 50 34) (size 1.25 1.25) (drill 0.71) (layers *.Cu *.Mask F.SilkS))
  (pad 106 thru_hole circle (at 48 34) (size 1.25 1.25) (drill 0.71) (layers *.Cu *.Mask F.SilkS))
  (pad 107 thru_hole circle (at 50 36) (size 1.25 1.25) (drill 0.71) (layers *.Cu *.Mask F.SilkS))
  (pad 108 thru_hole circle (at 48 36) (size 1.25 1.25) (drill 0.71) (layers *.Cu *.Mask F.SilkS))
  (pad 109 thru_hole circle (at 50 38) (size 1.25 1.25) (drill 0.71) (layers *.Cu *.Mask F.SilkS))
  (pad 110 thru_hole circle (at 48 38) (size 1.25 1.25) (drill 0.71) (layers *.Cu *.Mask F.SilkS))
  (pad 111 thru_hole circle (at 50 40) (size 1.25 1.25) (drill 0.71) (layers *.Cu *.Mask F.SilkS))
  (pad 112 thru_hole circle (at 48 40) (size 1.25 1.25) (drill 0.71) (layers *.Cu *.Mask F.SilkS))
  (pad 113 thru_hole circle (at 50 42) (size 1.25 1.25) (drill 0.71) (layers *.Cu *.Mask F.SilkS))
  (pad 114 thru_hole circle (at 48 42) (size 1.25 1.25) (drill 0.71) (layers *.Cu *.Mask F.SilkS))
  (pad 115 thru_hole circle (at 50 44) (size 1.25 1.25) (drill 0.71) (layers *.Cu *.Mask F.SilkS))
  (pad 116 thru_hole circle (at 48 44) (size 1.25 1.25) (drill 0.71) (layers *.Cu *.Mask F.SilkS))
  (pad 117 thru_hole circle (at 50 46) (size 1.25 1.25) (drill 0.71) (layers *.Cu *.Mask F.SilkS))
  (pad 118 thru_hole circle (at 48 46) (size 1.25 1.25) (drill 0.71) (layers *.Cu *.Mask F.SilkS))
  (pad 119 thru_hole circle (at 50 48) (size 1.25 1.25) (drill 0.71) (layers *.Cu *.Mask F.SilkS))
  (pad 120 thru_hole circle (at 48 48) (size 1.25 1.25) (drill 0.71) (layers *.Cu *.Mask F.SilkS))
  (pad 121 thru_hole circle (at 50 50) (size 1.25 1.25) (drill 0.71) (layers *.Cu *.Mask F.SilkS))
  (pad 122 thru_hole circle (at 48 50) (size 1.25 1.25) (drill 0.71) (layers *.Cu *.Mask F.SilkS))
  (pad 123 thru_hole circle (at 50 52) (size 1.25 1.25) (drill 0.71) (layers *.Cu *.Mask F.SilkS))
  (pad 124 thru_hole circle (at 48 52) (size 1.25 1.25) (drill 0.71) (layers *.Cu *.Mask F.SilkS))
)
