(module CART_BUS_SHORT (layer F.Cu) (tedit 5AF05CEB)
  (descr "TI 99/4A GROM Cartridge Bus with short Pads")
  (tags "CONNECTOR GROM BUS TI99 (short)")
  (fp_text reference REF** (at 22.86 17.78) (layer F.SilkS)
    (effects (font (size 1 1) (thickness 0.15)))
  )
  (fp_text value CART_BUS_SHORT (at 24.13 -2.54) (layer F.Fab)
    (effects (font (size 1 1) (thickness 0.15)))
  )
  (pad 35 connect rect (at 44.45 7.62) (size 1.778 10) (layers B.Cu B.Mask))
  (pad 33 connect rect (at 41.91 7.62) (size 1.778 10) (layers B.Cu B.Mask))
  (pad 31 connect rect (at 39.37 7.62) (size 1.778 10) (layers B.Cu B.Mask))
  (pad 29 connect rect (at 36.83 7.62) (size 1.778 10) (layers B.Cu B.Mask))
  (pad 27 connect rect (at 34.29 7.62) (size 1.778 10) (layers B.Cu B.Mask))
  (pad 25 connect rect (at 31.75 7.62) (size 1.778 10) (layers B.Cu B.Mask))
  (pad 23 connect rect (at 29.21 7.62) (size 1.778 10) (layers B.Cu B.Mask))
  (pad 21 connect rect (at 26.67 7.62) (size 1.778 10) (layers B.Cu B.Mask))
  (pad 19 connect rect (at 24.13 8.62) (size 1.778 12) (layers B.Cu B.Mask))
  (pad 17 connect rect (at 21.59 7.62) (size 1.778 10) (layers B.Cu B.Mask))
  (pad 15 connect rect (at 19.05 7.62) (size 1.778 10) (layers B.Cu B.Mask))
  (pad 13 connect rect (at 16.51 7.62) (size 1.778 10) (layers B.Cu B.Mask))
  (pad 11 connect rect (at 13.97 7.62) (size 1.778 10) (layers B.Cu B.Mask))
  (pad 9 connect rect (at 11.43 7.62) (size 1.778 10) (layers B.Cu B.Mask))
  (pad 7 connect rect (at 8.89 7.62) (size 1.778 10) (layers B.Cu B.Mask))
  (pad 5 connect rect (at 6.35 7.62) (size 1.778 10) (layers B.Cu B.Mask))
  (pad 3 connect rect (at 3.81 7.62) (size 1.778 10) (layers B.Cu B.Mask))
  (pad 1 connect rect (at 1.27 7.62) (size 1.778 10) (layers B.Cu B.Mask))
  (pad 36 connect rect (at 44.45 8.62) (size 1.778 12) (layers F.Cu F.Mask))
  (pad 34 connect rect (at 41.91 7.62) (size 1.778 10) (layers F.Cu F.Mask))
  (pad 32 connect rect (at 39.37 7.62) (size 1.778 10) (layers F.Cu F.Mask))
  (pad 30 connect rect (at 36.83 7.62) (size 1.778 10) (layers F.Cu F.Mask))
  (pad 28 connect rect (at 34.29 7.62) (size 1.778 10) (layers F.Cu F.Mask))
  (pad 26 connect rect (at 31.75 7.62) (size 1.778 10) (layers F.Cu F.Mask))
  (pad 24 connect rect (at 29.21 7.62) (size 1.778 10) (layers F.Cu F.Mask))
  (pad 22 connect rect (at 26.67 7.62) (size 1.778 10) (layers F.Cu F.Mask))
  (pad 20 connect rect (at 24.13 7.62) (size 1.778 10) (layers F.Cu F.Mask))
  (pad 18 connect rect (at 21.59 7.62) (size 1.778 10) (layers F.Cu F.Mask))
  (pad 16 connect rect (at 19.05 7.62) (size 1.778 10) (layers F.Cu F.Mask))
  (pad 14 connect rect (at 16.51 7.62) (size 1.778 10) (layers F.Cu F.Mask))
  (pad 12 connect rect (at 13.97 7.62) (size 1.778 10) (layers F.Cu F.Mask))
  (pad 10 connect rect (at 11.43 7.62) (size 1.778 10) (layers F.Cu F.Mask))
  (pad 8 connect rect (at 8.89 7.62) (size 1.778 10) (layers F.Cu F.Mask))
  (pad 6 connect rect (at 6.35 7.62) (size 1.778 10) (layers F.Cu F.Mask))
  (pad 4 connect rect (at 3.81 7.62) (size 1.778 10) (layers F.Cu F.Mask))
  (pad 2 connect rect (at 1.27 8.62) (size 1.778 12) (layers F.Cu F.Mask))
)
